\relax 
\providecommand\hyper@newdestlabel[2]{}
\catcode `"\active 
\providecommand\HyperFirstAtBeginDocument{\AtBeginDocument}
\HyperFirstAtBeginDocument{\ifx\hyper@anchor\@undefined
\global\let\oldcontentsline\contentsline
\gdef\contentsline#1#2#3#4{\oldcontentsline{#1}{#2}{#3}}
\global\let\oldnewlabel\newlabel
\gdef\newlabel#1#2{\newlabelxx{#1}#2}
\gdef\newlabelxx#1#2#3#4#5#6{\oldnewlabel{#1}{{#2}{#3}}}
\AtEndDocument{\ifx\hyper@anchor\@undefined
\let\contentsline\oldcontentsline
\let\newlabel\oldnewlabel
\fi}
\fi}
\global\let\hyper@last\relax 
\gdef\HyperFirstAtBeginDocument#1{#1}
\providecommand\HyField@AuxAddToFields[1]{}
\providecommand\HyField@AuxAddToCoFields[2]{}
\babel@aux{norsk}{}
\@writefile{toc}{\contentsline {section}{\numberline {1}Theoretical Questions}{1}{section.1}}
\@writefile{toc}{\contentsline {subsection}{\numberline {1.1}Q1}{1}{subsection.1.1}}
\newlabel{sec:poisson}{{1.1}{1}{Q1}{subsection.1.1}{}}
\@writefile{toc}{\contentsline {subsection}{\numberline {1.2}Q2}{2}{subsection.1.2}}
\@writefile{toc}{\contentsline {subsection}{\numberline {1.3}Q3}{2}{subsection.1.3}}
\@writefile{toc}{\contentsline {subsection}{\numberline {1.4}Q4}{2}{subsection.1.4}}
\@writefile{toc}{\contentsline {subsection}{\numberline {1.5}Q5}{2}{subsection.1.5}}
\@writefile{toc}{\contentsline {subsection}{\numberline {1.6}Q6}{3}{subsection.1.6}}
\@writefile{toc}{\contentsline {subsection}{\numberline {1.7}Q7}{3}{subsection.1.7}}
\@writefile{toc}{\contentsline {subsection}{\numberline {1.8}Q8}{3}{subsection.1.8}}
\bibstyle{unsrt}
\bibdata{prosjekt}
\@writefile{toc}{\contentsline {subsection}{\numberline {1.9}Q9}{4}{subsection.1.9}}
