\relax 
\providecommand\hyper@newdestlabel[2]{}
\catcode `"\active 
\providecommand\HyperFirstAtBeginDocument{\AtBeginDocument}
\HyperFirstAtBeginDocument{\ifx\hyper@anchor\@undefined
\global\let\oldcontentsline\contentsline
\gdef\contentsline#1#2#3#4{\oldcontentsline{#1}{#2}{#3}}
\global\let\oldnewlabel\newlabel
\gdef\newlabel#1#2{\newlabelxx{#1}#2}
\gdef\newlabelxx#1#2#3#4#5#6{\oldnewlabel{#1}{{#2}{#3}}}
\AtEndDocument{\ifx\hyper@anchor\@undefined
\let\contentsline\oldcontentsline
\let\newlabel\oldnewlabel
\fi}
\fi}
\global\let\hyper@last\relax 
\gdef\HyperFirstAtBeginDocument#1{#1}
\providecommand\HyField@AuxAddToFields[1]{}
\providecommand\HyField@AuxAddToCoFields[2]{}
\babel@aux{norsk}{}
\@writefile{toc}{\contentsline {section}{\numberline {1}Open code repo}{1}{section.1}}
\@writefile{toc}{\contentsline {section}{\numberline {2}Constraint Satisfaction Problems CSP}{1}{section.2}}
\@writefile{toc}{\contentsline {subsection}{\numberline {2.1}CSP code in python}{1}{subsection.2.1}}
\@writefile{toc}{\contentsline {subsection}{\numberline {2.2}CSP to solve map coloring challenge}{2}{subsection.2.2}}
\@writefile{toc}{\contentsline {subsection}{\numberline {2.3}CSP to solve sudoku}{2}{subsection.2.3}}
